CCS PCH C Compiler, Version 3.214, 26547               10-Sep-18 15:02

               Filename: H:\microcontrollers\counting.LST

               ROM used: 106 bytes (0%)
                         Largest free fragment is 32662
               RAM used: 7 (0%) at main() level
                         8 (1%) worst case
               Stack:    1 locations

*
0000:  GOTO   002C
....................  #include <18f4520.h> 
....................  //////// Standard Header file for the PIC18F4520 device ////////////////  
.................... #device PIC18F4520  
.................... #list  
....................  
.................... #use delay (clock=20000000)  
0004:  CLRF   FEA
0006:  MOVLW  08
0008:  MOVWF  FE9
000A:  MOVF   FEF,W
000C:  BZ    0028
000E:  MOVLW  06
0010:  MOVWF  01
0012:  CLRF   00
0014:  DECFSZ 00,F
0016:  BRA    0014
0018:  DECFSZ 01,F
001A:  BRA    0012
001C:  MOVLW  7B
001E:  MOVWF  00
0020:  DECFSZ 00,F
0022:  BRA    0020
0024:  DECFSZ FEF,F
0026:  BRA    000E
0028:  GOTO   0060 (RETURN)
.................... #fuses HS, NOWDT, NOLVP  
....................   
.................... main(){  
....................    int x = 0;  
002C:  CLRF   FF8
002E:  BCF    FD0.7
0030:  CLRF   FEA
0032:  CLRF   FE9
0034:  MOVF   FC1,W
0036:  ANDLW  C0
0038:  IORLW  03
003A:  MOVWF  FC1
003C:  MOVLW  07
003E:  MOVWF  FB4
0040:  MOVF   FB4,W
0042:  BCF    FA1.6
0044:  CLRF   06
....................    set_tris_c(0x00);  
0046:  MOVLW  00
0048:  MOVWF  F94
....................    output_c(0x00);  
004A:  MOVWF  F94
004C:  CLRF   F8B
....................    while(1){  
....................       output_c(x);  
004E:  MOVLW  00
0050:  MOVWF  F94
0052:  MOVFF  06,F8B
....................       delay_ms(500);  
0056:  MOVLW  02
0058:  MOVWF  07
005A:  MOVLW  FA
005C:  MOVWF  08
005E:  BRA    0004
0060:  DECFSZ 07,F
0062:  BRA    005A
....................       x++;  
0064:  INCF   06,F
....................    }  
0066:  BRA    004E
.................... }  
....................  
0068:  SLEEP 

Configuration Fuses:
   Word  1: C200   HS IESO FCMEN
   Word  2: 1E0F   BROWNOUT NOWDT BORV25 NOPUT WDT32768
   Word  3: 8700   PBADEN CCP2C1 LPT1OSC MCLR
   Word  4: 0081   STVREN NODEBUG NOLVP NOXINST
   Word  5: C00F   NOPROTECT NOCPD NOCPB
   Word  6: E00F   NOWRT NOWRTD NOWRTC NOWRTB
   Word  7: 400F   NOEBTR NOEBTRB
