CCS PCH C Compiler, Version 5.008, 5967               17-Sep-18 16:47

               Filename:   C:\Users\johnm\Google Drive\School\Fall 2018\Microcontrollers\Lab_1\Problem_5\problem_5.lst

               ROM used:   184 bytes (1%)
                           Largest free fragment is 32584
               RAM used:   25 (2%) at main() level
                           25 (2%) worst case
               Stack used: 1 locations
               Stack size: 31

*
0000:  GOTO   002C
.................... #include <problem_5.h> 
.................... #include <18F4520.h> 
.................... //////// Standard Header file for the PIC18F4520 device //////////////// 
.................... #device PIC18F4520 
....................  
.................... #list 
....................  
.................... #device ADC=16 
....................  
.................... #FUSES NOWDT                    //No Watch Dog Timer 
.................... #FUSES WDT128                   //Watch Dog Timer uses 1:128 Postscale 
.................... #FUSES NOBROWNOUT               //No brownout reset 
.................... #FUSES NOLVP                    //No low voltage prgming, B3(PIC16) or B5(PIC18) used for I/O 
.................... #FUSES NOXINST                  //Extended set extension and Indexed Addressing mode disabled (Legacy mode) 
.................... #FUSES HS 
....................  
.................... #use delay(crystal=20000000) 
0004:  CLRF   FEA
0006:  MOVLW  17
0008:  MOVWF  FE9
000A:  MOVF   FEF,W
000C:  BZ    0028
000E:  MOVLW  06
0010:  MOVWF  01
0012:  CLRF   00
0014:  DECFSZ 00,F
0016:  BRA    0014
0018:  DECFSZ 01,F
001A:  BRA    0012
001C:  MOVLW  7B
001E:  MOVWF  00
0020:  DECFSZ 00,F
0022:  BRA    0020
0024:  DECFSZ FEF,F
0026:  BRA    000E
0028:  GOTO   00B0 (RETURN)
....................  
....................  
.................... #include "../../Library/my18f4520.h" 
.................... //pointer to GPIOs 
....................  
.................... int *TRISA = 0xF92; 
.................... int *TRISB = 0xF93; 
.................... int *TRISC = 0xF94; 
.................... int *TRISD = 0xF95; 
....................  
.................... int *PORTA = 0xF80; 
.................... int *PORTB = 0xF81; 
.................... int *PORTC = 0xF82; 
.................... int *PORTD = 0xF83; 
....................  
.................... //Analog to Digital Conv Circuits 
.................... struct _adcon1{ 
....................    int PCFGx:4; 
....................    int VCFG0:1; 
....................    int VCFG1:1; 
....................    int unused:2; 
.................... }; 
.................... struct _adcon1 *ADCON = 0xFC1; 
....................  
....................  
.................... //fuses and 18f4520.h library included in first header file 
....................  
.................... void main() 
002C:  CLRF   FF8
002E:  BCF    FD0.7
0030:  MOVLW  0F
0032:  MOVWF  05
0034:  MOVLW  92
0036:  MOVWF  04
0038:  MOVLW  0F
003A:  MOVWF  07
003C:  MOVLW  93
003E:  MOVWF  06
0040:  MOVLW  0F
0042:  MOVWF  09
0044:  MOVLW  94
0046:  MOVWF  08
0048:  MOVLW  0F
004A:  MOVWF  0B
004C:  MOVLW  95
004E:  MOVWF  0A
0050:  MOVLW  0F
0052:  MOVWF  0D
0054:  MOVLW  80
0056:  MOVWF  0C
0058:  MOVLW  0F
005A:  MOVWF  0F
005C:  MOVLW  81
005E:  MOVWF  0E
0060:  MOVLW  0F
0062:  MOVWF  11
0064:  MOVLW  82
0066:  MOVWF  10
0068:  MOVLW  0F
006A:  MOVWF  13
006C:  MOVLW  83
006E:  MOVWF  12
0070:  MOVLW  0F
0072:  MOVWF  15
0074:  MOVLW  C1
0076:  MOVWF  14
0078:  MOVF   FC1,W
007A:  ANDLW  C0
007C:  IORLW  0F
007E:  MOVWF  FC1
0080:  MOVLW  07
0082:  MOVWF  FB4
.................... { 
....................  
....................    *TRISC = 0x00; 
0084:  MOVFF  08,FE9
0088:  MOVFF  09,FEA
008C:  CLRF   FEF
....................    *PORTC = 0x00; 
008E:  MOVFF  10,FE9
0092:  MOVFF  11,FEA
0096:  CLRF   FEF
....................    while(1) 
....................    { 
....................       *PORTC^=0x01; 
0098:  MOVFF  10,FE9
009C:  MOVFF  11,FEA
00A0:  MOVF   FEF,W
00A2:  XORLW  01
00A4:  MOVWF  FEF
....................       delay_ms(500); 
00A6:  MOVLW  02
00A8:  MOVWF  16
00AA:  MOVLW  FA
00AC:  MOVWF  17
00AE:  BRA    0004
00B0:  DECFSZ 16,F
00B2:  BRA    00AA
00B4:  BRA    0098
....................    } 
....................  
.................... } 
00B6:  SLEEP 

Configuration Fuses:
   Word  1: C200   HS FCMEN IESO
   Word  2: 0E18   PUT NOBROWNOUT BORV21 NOWDT WDT128
   Word  3: 8700   CCP2C1 PBADEN LPT1OSC MCLR
   Word  4: 0081   STVREN NOLVP NOXINST NODEBUG
   Word  5: C00F   NOPROTECT NOCPB NOCPD
   Word  6: E00F   NOWRT NOWRTC NOWRTB NOWRTD
   Word  7: 400F   NOEBTR NOEBTRB
