000     @SCRATCH
001     @SCRATCH
001     _RETURN_
002     @SCRATCH
003     @SCRATCH
004     @SCRATCH
005-006 PORTC
007-008 TRISC
009     main.@SCRATCH
00A     @delay_ms1.P1
00A     main.@SCRATCH
00B     main.@SCRATCH
F83     PSP_DATA
FB4.6   C1OUT
FB4.7   C2OUT
FBB-FBC CCP_2
FBB     CCP_2_LOW
FBC     CCP_2_HIGH
FBE-FBF CCP_1
FBE     CCP_1_LOW
FBF     CCP_1_HIGH

0004  @delay_ms1
002C  main
002C  @cinit

Project Files:
    H:\microcontrollers\led_onoff.c
    C:\Program Files (x86)\PICC\devices\18f4520.h

Compiler Settings:
    Processor:      PIC18F4520
    Pointer Size:   16
    ADC Range:      0-255
    Opt Level:      9
    Short,Int,Long: 1,8,16

Output Files:
    Errors:      H:\microcontrollers\led_onoff.err
    INHX32:      H:\microcontrollers\led_onoff.HEX
    Symbols:     H:\microcontrollers\led_onoff.SYM
    List:        H:\microcontrollers\led_onoff.LST
    Debug/COFF:  H:\microcontrollers\led_onoff.cof
    Call Tree:   H:\microcontrollers\led_onoff.tre
    Statistics:  H:\microcontrollers\led_onoff.sta
